[
    {
        "name": "container-interop/container-interop",
        "version": "1.2.0",
        "version_normalized": "1.2.0.0",
        "source": {
            "type": "git",
            "url": "https://github.com/container-interop/container-interop.git",
            "reference": "79cbf1341c22ec75643d841642dd5d6acd83bdb8"
        },
        "dist": {
            "type": "zip",
            "url": "https://api.github.com/repos/container-interop/container-interop/zipball/79cbf1341c22ec75643d841642dd5d6acd83bdb8",
            "reference": "79cbf1341c22ec75643d841642dd5d6acd83bdb8",
            "shasum": ""
        },
        "require": {
            "psr/container": "^1.0"
        },
        "time": "2017-02-14T19:40:03+00:00",
        "type": "library",
        "installation-source": "dist",
        "autoload": {
            "psr-4": {
                "Interop\\Container\\": "src/Interop/Container/"
            }
        },
        "notification-url": "https://packagist.org/downloads/",
        "license": [
            "MIT"
        ],
        "description": "Promoting the interoperability of container objects (DIC, SL, etc.)",
        "homepage": "https://github.com/container-interop/container-interop"
    },
    {
        "name": "doctrine/instantiator",
        "version": "1.0.5",
        "version_normalized": "1.0.5.0",
        "source": {
            "type": "git",
            "url": "https://github.com/doctrine/instantiator.git",
            "reference": "8e884e78f9f0eb1329e445619e04456e64d8051d"
        },
        "dist": {
            "type": "zip",
            "url": "https://api.github.com/repos/doctrine/instantiator/zipball/8e884e78f9f0eb1329e445619e04456e64d8051d",
            "reference": "8e884e78f9f0eb1329e445619e04456e64d8051d",
            "shasum": ""
        },
        "require": {
            "php": ">=5.3,<8.0-DEV"
        },
        "require-dev": {
            "athletic/athletic": "~0.1.8",
            "ext-pdo": "*",
            "ext-phar": "*",
            "phpunit/phpunit": "~4.0",
            "squizlabs/php_codesniffer": "~2.0"
        },
        "time": "2015-06-14T21:17:01+00:00",
        "type": "library",
        "extra": {
            "branch-alias": {
                "dev-master": "1.0.x-dev"
            }
        },
        "installation-source": "dist",
        "autoload": {
            "psr-4": {
                "Doctrine\\Instantiator\\": "src/Doctrine/Instantiator/"
            }
        },
        "notification-url": "https://packagist.org/downloads/",
        "license": [
            "MIT"
        ],
        "authors": [
            {
                "name": "Marco Pivetta",
                "email": "ocramius@gmail.com",
                "homepage": "http://ocramius.github.com/"
            }
        ],
        "description": "A small, lightweight utility to instantiate objects in PHP without invoking their constructors",
        "homepage": "https://github.com/doctrine/instantiator",
        "keywords": [
            "constructor",
            "instantiate"
        ]
    },
    {
        "name": "monolog/monolog",
        "version": "1.23.0",
        "version_normalized": "1.23.0.0",
        "source": {
            "type": "git",
            "url": "https://github.com/Seldaek/monolog.git",
            "reference": "fd8c787753b3a2ad11bc60c063cff1358a32a3b4"
        },
        "dist": {
            "type": "zip",
            "url": "https://api.github.com/repos/Seldaek/monolog/zipball/fd8c787753b3a2ad11bc60c063cff1358a32a3b4",
            "reference": "fd8c787753b3a2ad11bc60c063cff1358a32a3b4",
            "shasum": ""
        },
        "require": {
            "php": ">=5.3.0",
            "psr/log": "~1.0"
        },
        "provide": {
            "psr/log-implementation": "1.0.0"
        },
        "require-dev": {
            "aws/aws-sdk-php": "^2.4.9 || ^3.0",
            "doctrine/couchdb": "~1.0@dev",
            "graylog2/gelf-php": "~1.0",
            "jakub-onderka/php-parallel-lint": "0.9",
            "php-amqplib/php-amqplib": "~2.4",
            "php-console/php-console": "^3.1.3",
            "phpunit/phpunit": "~4.5",
            "phpunit/phpunit-mock-objects": "2.3.0",
            "ruflin/elastica": ">=0.90 <3.0",
            "sentry/sentry": "^0.13",
            "swiftmailer/swiftmailer": "^5.3|^6.0"
        },
        "suggest": {
            "aws/aws-sdk-php": "Allow sending log messages to AWS services like DynamoDB",
            "doctrine/couchdb": "Allow sending log messages to a CouchDB server",
            "ext-amqp": "Allow sending log messages to an AMQP server (1.0+ required)",
            "ext-mongo": "Allow sending log messages to a MongoDB server",
            "graylog2/gelf-php": "Allow sending log messages to a GrayLog2 server",
            "mongodb/mongodb": "Allow sending log messages to a MongoDB server via PHP Driver",
            "php-amqplib/php-amqplib": "Allow sending log messages to an AMQP server using php-amqplib",
            "php-console/php-console": "Allow sending log messages to Google Chrome",
            "rollbar/rollbar": "Allow sending log messages to Rollbar",
            "ruflin/elastica": "Allow sending log messages to an Elastic Search server",
            "sentry/sentry": "Allow sending log messages to a Sentry server"
        },
        "time": "2017-06-19T01:22:40+00:00",
        "type": "library",
        "extra": {
            "branch-alias": {
                "dev-master": "2.0.x-dev"
            }
        },
        "installation-source": "dist",
        "autoload": {
            "psr-4": {
                "Monolog\\": "src/Monolog"
            }
        },
        "notification-url": "https://packagist.org/downloads/",
        "license": [
            "MIT"
        ],
        "authors": [
            {
                "name": "Jordi Boggiano",
                "email": "j.boggiano@seld.be",
                "homepage": "http://seld.be"
            }
        ],
        "description": "Sends your logs to files, sockets, inboxes, databases and various web services",
        "homepage": "http://github.com/Seldaek/monolog",
        "keywords": [
            "log",
            "logging",
            "psr-3"
        ]
    },
    {
        "name": "nikic/fast-route",
        "version": "v1.3.0",
        "version_normalized": "1.3.0.0",
        "source": {
            "type": "git",
            "url": "https://github.com/nikic/FastRoute.git",
            "reference": "181d480e08d9476e61381e04a71b34dc0432e812"
        },
        "dist": {
            "type": "zip",
            "url": "https://api.github.com/repos/nikic/FastRoute/zipball/181d480e08d9476e61381e04a71b34dc0432e812",
            "reference": "181d480e08d9476e61381e04a71b34dc0432e812",
            "shasum": ""
        },
        "require": {
            "php": ">=5.4.0"
        },
        "require-dev": {
            "phpunit/phpunit": "^4.8.35|~5.7"
        },
        "time": "2018-02-13T20:26:39+00:00",
        "type": "library",
        "installation-source": "dist",
        "autoload": {
            "psr-4": {
                "FastRoute\\": "src/"
            },
            "files": [
                "src/functions.php"
            ]
        },
        "notification-url": "https://packagist.org/downloads/",
        "license": [
            "BSD-3-Clause"
        ],
        "authors": [
            {
                "name": "Nikita Popov",
                "email": "nikic@php.net"
            }
        ],
        "description": "Fast request router for PHP",
        "keywords": [
            "router",
            "routing"
        ]
    },
    {
        "name": "phpdocumentor/reflection-common",
        "version": "1.0.1",
        "version_normalized": "1.0.1.0",
        "source": {
            "type": "git",
            "url": "https://github.com/phpDocumentor/ReflectionCommon.git",
            "reference": "21bdeb5f65d7ebf9f43b1b25d404f87deab5bfb6"
        },
        "dist": {
            "type": "zip",
            "url": "https://api.github.com/repos/phpDocumentor/ReflectionCommon/zipball/21bdeb5f65d7ebf9f43b1b25d404f87deab5bfb6",
            "reference": "21bdeb5f65d7ebf9f43b1b25d404f87deab5bfb6",
            "shasum": ""
        },
        "require": {
            "php": ">=5.5"
        },
        "require-dev": {
            "phpunit/phpunit": "^4.6"
        },
        "time": "2017-09-11T18:02:19+00:00",
        "type": "library",
        "extra": {
            "branch-alias": {
                "dev-master": "1.0.x-dev"
            }
        },
        "installation-source": "dist",
        "autoload": {
            "psr-4": {
                "phpDocumentor\\Reflection\\": [
                    "src"
                ]
            }
        },
        "notification-url": "https://packagist.org/downloads/",
        "license": [
            "MIT"
        ],
        "authors": [
            {
                "name": "Jaap van Otterdijk",
                "email": "opensource@ijaap.nl"
            }
        ],
        "description": "Common reflection classes used by phpdocumentor to reflect the code structure",
        "homepage": "http://www.phpdoc.org",
        "keywords": [
            "FQSEN",
            "phpDocumentor",
            "phpdoc",
            "reflection",
            "static analysis"
        ]
    },
    {
        "name": "phpdocumentor/reflection-docblock",
        "version": "3.2.2",
        "version_normalized": "3.2.2.0",
        "source": {
            "type": "git",
            "url": "https://github.com/phpDocumentor/ReflectionDocBlock.git",
            "reference": "4aada1f93c72c35e22fb1383b47fee43b8f1d157"
        },
        "dist": {
            "type": "zip",
            "url": "https://api.github.com/repos/phpDocumentor/ReflectionDocBlock/zipball/4aada1f93c72c35e22fb1383b47fee43b8f1d157",
            "reference": "4aada1f93c72c35e22fb1383b47fee43b8f1d157",
            "shasum": ""
        },
        "require": {
            "php": ">=5.5",
            "phpdocumentor/reflection-common": "^1.0@dev",
            "phpdocumentor/type-resolver": "^0.3.0",
            "webmozart/assert": "^1.0"
        },
        "require-dev": {
            "mockery/mockery": "^0.9.4",
            "phpunit/phpunit": "^4.4"
        },
        "time": "2017-08-08T06:39:58+00:00",
        "type": "library",
        "installation-source": "dist",
        "autoload": {
            "psr-4": {
                "phpDocumentor\\Reflection\\": [
                    "src/"
                ]
            }
        },
        "notification-url": "https://packagist.org/downloads/",
        "license": [
            "MIT"
        ],
        "authors": [
            {
                "name": "Mike van Riel",
                "email": "me@mikevanriel.com"
            }
        ],
        "description": "With this component, a library can provide support for annotations via DocBlocks or otherwise retrieve information that is embedded in a DocBlock."
    },
    {
        "name": "phpdocumentor/type-resolver",
        "version": "0.3.0",
        "version_normalized": "0.3.0.0",
        "source": {
            "type": "git",
            "url": "https://github.com/phpDocumentor/TypeResolver.git",
            "reference": "fb3933512008d8162b3cdf9e18dba9309b7c3773"
        },
        "dist": {
            "type": "zip",
            "url": "https://api.github.com/repos/phpDocumentor/TypeResolver/zipball/fb3933512008d8162b3cdf9e18dba9309b7c3773",
            "reference": "fb3933512008d8162b3cdf9e18dba9309b7c3773",
            "shasum": ""
        },
        "require": {
            "php": "^5.5 || ^7.0",
            "phpdocumentor/reflection-common": "^1.0"
        },
        "require-dev": {
            "mockery/mockery": "^0.9.4",
            "phpunit/phpunit": "^5.2||^4.8.24"
        },
        "time": "2017-06-03T08:32:36+00:00",
        "type": "library",
        "extra": {
            "branch-alias": {
                "dev-master": "1.0.x-dev"
            }
        },
        "installation-source": "dist",
        "autoload": {
            "psr-4": {
                "phpDocumentor\\Reflection\\": [
                    "src/"
                ]
            }
        },
        "notification-url": "https://packagist.org/downloads/",
        "license": [
            "MIT"
        ],
        "authors": [
            {
                "name": "Mike van Riel",
                "email": "me@mikevanriel.com"
            }
        ]
    },
    {
        "name": "phpspec/prophecy",
        "version": "1.7.6",
        "version_normalized": "1.7.6.0",
        "source": {
            "type": "git",
            "url": "https://github.com/phpspec/prophecy.git",
            "reference": "33a7e3c4fda54e912ff6338c48823bd5c0f0b712"
        },
        "dist": {
            "type": "zip",
            "url": "https://api.github.com/repos/phpspec/prophecy/zipball/33a7e3c4fda54e912ff6338c48823bd5c0f0b712",
            "reference": "33a7e3c4fda54e912ff6338c48823bd5c0f0b712",
            "shasum": ""
        },
        "require": {
            "doctrine/instantiator": "^1.0.2",
            "php": "^5.3|^7.0",
            "phpdocumentor/reflection-docblock": "^2.0|^3.0.2|^4.0",
            "sebastian/comparator": "^1.1|^2.0|^3.0",
            "sebastian/recursion-context": "^1.0|^2.0|^3.0"
        },
        "require-dev": {
            "phpspec/phpspec": "^2.5|^3.2",
            "phpunit/phpunit": "^4.8.35 || ^5.7 || ^6.5"
        },
        "time": "2018-04-18T13:57:24+00:00",
        "type": "library",
        "extra": {
            "branch-alias": {
                "dev-master": "1.7.x-dev"
            }
        },
        "installation-source": "dist",
        "autoload": {
            "psr-0": {
                "Prophecy\\": "src/"
            }
        },
        "notification-url": "https://packagist.org/downloads/",
        "license": [
            "MIT"
        ],
        "authors": [
            {
                "name": "Konstantin Kudryashov",
                "email": "ever.zet@gmail.com",
                "homepage": "http://everzet.com"
            },
            {
                "name": "Marcello Duarte",
                "email": "marcello.duarte@gmail.com"
            }
        ],
        "description": "Highly opinionated mocking framework for PHP 5.3+",
        "homepage": "https://github.com/phpspec/prophecy",
        "keywords": [
            "Double",
            "Dummy",
            "fake",
            "mock",
            "spy",
            "stub"
        ]
    },
    {
        "name": "phpunit/php-code-coverage",
        "version": "2.2.4",
        "version_normalized": "2.2.4.0",
        "source": {
            "type": "git",
            "url": "https://github.com/sebastianbergmann/php-code-coverage.git",
            "reference": "eabf68b476ac7d0f73793aada060f1c1a9bf8979"
        },
        "dist": {
            "type": "zip",
            "url": "https://api.github.com/repos/sebastianbergmann/php-code-coverage/zipball/eabf68b476ac7d0f73793aada060f1c1a9bf8979",
            "reference": "eabf68b476ac7d0f73793aada060f1c1a9bf8979",
            "shasum": ""
        },
        "require": {
            "php": ">=5.3.3",
            "phpunit/php-file-iterator": "~1.3",
            "phpunit/php-text-template": "~1.2",
            "phpunit/php-token-stream": "~1.3",
            "sebastian/environment": "^1.3.2",
            "sebastian/version": "~1.0"
        },
        "require-dev": {
            "ext-xdebug": ">=2.1.4",
            "phpunit/phpunit": "~4"
        },
        "suggest": {
            "ext-dom": "*",
            "ext-xdebug": ">=2.2.1",
            "ext-xmlwriter": "*"
        },
        "time": "2015-10-06T15:47:00+00:00",
        "type": "library",
        "extra": {
            "branch-alias": {
                "dev-master": "2.2.x-dev"
            }
        },
        "installation-source": "dist",
        "autoload": {
            "classmap": [
                "src/"
            ]
        },
        "notification-url": "https://packagist.org/downloads/",
        "license": [
            "BSD-3-Clause"
        ],
        "authors": [
            {
                "name": "Sebastian Bergmann",
                "email": "sb@sebastian-bergmann.de",
                "role": "lead"
            }
        ],
        "description": "Library that provides collection, processing, and rendering functionality for PHP code coverage information.",
        "homepage": "https://github.com/sebastianbergmann/php-code-coverage",
        "keywords": [
            "coverage",
            "testing",
            "xunit"
        ]
    },
    {
        "name": "phpunit/php-file-iterator",
        "version": "1.4.5",
        "version_normalized": "1.4.5.0",
        "source": {
            "type": "git",
            "url": "https://github.com/sebastianbergmann/php-file-iterator.git",
            "reference": "730b01bc3e867237eaac355e06a36b85dd93a8b4"
        },
        "dist": {
            "type": "zip",
            "url": "https://api.github.com/repos/sebastianbergmann/php-file-iterator/zipball/730b01bc3e867237eaac355e06a36b85dd93a8b4",
            "reference": "730b01bc3e867237eaac355e06a36b85dd93a8b4",
            "shasum": ""
        },
        "require": {
            "php": ">=5.3.3"
        },
        "time": "2017-11-27T13:52:08+00:00",
        "type": "library",
        "extra": {
            "branch-alias": {
                "dev-master": "1.4.x-dev"
            }
        },
        "installation-source": "dist",
        "autoload": {
            "classmap": [
                "src/"
            ]
        },
        "notification-url": "https://packagist.org/downloads/",
        "license": [
            "BSD-3-Clause"
        ],
        "authors": [
            {
                "name": "Sebastian Bergmann",
                "email": "sb@sebastian-bergmann.de",
                "role": "lead"
            }
        ],
        "description": "FilterIterator implementation that filters files based on a list of suffixes.",
        "homepage": "https://github.com/sebastianbergmann/php-file-iterator/",
        "keywords": [
            "filesystem",
            "iterator"
        ]
    },
    {
        "name": "phpunit/php-text-template",
        "version": "1.2.1",
        "version_normalized": "1.2.1.0",
        "source": {
            "type": "git",
            "url": "https://github.com/sebastianbergmann/php-text-template.git",
            "reference": "31f8b717e51d9a2afca6c9f046f5d69fc27c8686"
        },
        "dist": {
            "type": "zip",
            "url": "https://api.github.com/repos/sebastianbergmann/php-text-template/zipball/31f8b717e51d9a2afca6c9f046f5d69fc27c8686",
            "reference": "31f8b717e51d9a2afca6c9f046f5d69fc27c8686",
            "shasum": ""
        },
        "require": {
            "php": ">=5.3.3"
        },
        "time": "2015-06-21T13:50:34+00:00",
        "type": "library",
        "installation-source": "dist",
        "autoload": {
            "classmap": [
                "src/"
            ]
        },
        "notification-url": "https://packagist.org/downloads/",
        "license": [
            "BSD-3-Clause"
        ],
        "authors": [
            {
                "name": "Sebastian Bergmann",
                "email": "sebastian@phpunit.de",
                "role": "lead"
            }
        ],
        "description": "Simple template engine.",
        "homepage": "https://github.com/sebastianbergmann/php-text-template/",
        "keywords": [
            "template"
        ]
    },
    {
        "name": "phpunit/php-timer",
        "version": "1.0.9",
        "version_normalized": "1.0.9.0",
        "source": {
            "type": "git",
            "url": "https://github.com/sebastianbergmann/php-timer.git",
            "reference": "3dcf38ca72b158baf0bc245e9184d3fdffa9c46f"
        },
        "dist": {
            "type": "zip",
            "url": "https://api.github.com/repos/sebastianbergmann/php-timer/zipball/3dcf38ca72b158baf0bc245e9184d3fdffa9c46f",
            "reference": "3dcf38ca72b158baf0bc245e9184d3fdffa9c46f",
            "shasum": ""
        },
        "require": {
            "php": "^5.3.3 || ^7.0"
        },
        "require-dev": {
            "phpunit/phpunit": "^4.8.35 || ^5.7 || ^6.0"
        },
        "time": "2017-02-26T11:10:40+00:00",
        "type": "library",
        "extra": {
            "branch-alias": {
                "dev-master": "1.0-dev"
            }
        },
        "installation-source": "dist",
        "autoload": {
            "classmap": [
                "src/"
            ]
        },
        "notification-url": "https://packagist.org/downloads/",
        "license": [
            "BSD-3-Clause"
        ],
        "authors": [
            {
                "name": "Sebastian Bergmann",
                "email": "sb@sebastian-bergmann.de",
                "role": "lead"
            }
        ],
        "description": "Utility class for timing",
        "homepage": "https://github.com/sebastianbergmann/php-timer/",
        "keywords": [
            "timer"
        ]
    },
    {
        "name": "phpunit/php-token-stream",
        "version": "1.4.12",
        "version_normalized": "1.4.12.0",
        "source": {
            "type": "git",
            "url": "https://github.com/sebastianbergmann/php-token-stream.git",
            "reference": "1ce90ba27c42e4e44e6d8458241466380b51fa16"
        },
        "dist": {
            "type": "zip",
            "url": "https://api.github.com/repos/sebastianbergmann/php-token-stream/zipball/1ce90ba27c42e4e44e6d8458241466380b51fa16",
            "reference": "1ce90ba27c42e4e44e6d8458241466380b51fa16",
            "shasum": ""
        },
        "require": {
            "ext-tokenizer": "*",
            "php": ">=5.3.3"
        },
        "require-dev": {
            "phpunit/phpunit": "~4.2"
        },
        "time": "2017-12-04T08:55:13+00:00",
        "type": "library",
        "extra": {
            "branch-alias": {
                "dev-master": "1.4-dev"
            }
        },
        "installation-source": "dist",
        "autoload": {
            "classmap": [
                "src/"
            ]
        },
        "notification-url": "https://packagist.org/downloads/",
        "license": [
            "BSD-3-Clause"
        ],
        "authors": [
            {
                "name": "Sebastian Bergmann",
                "email": "sebastian@phpunit.de"
            }
        ],
        "description": "Wrapper around PHP's tokenizer extension.",
        "homepage": "https://github.com/sebastianbergmann/php-token-stream/",
        "keywords": [
            "tokenizer"
        ]
    },
    {
        "name": "phpunit/phpunit",
        "version": "4.8.36",
        "version_normalized": "4.8.36.0",
        "source": {
            "type": "git",
            "url": "https://github.com/sebastianbergmann/phpunit.git",
            "reference": "46023de9a91eec7dfb06cc56cb4e260017298517"
        },
        "dist": {
            "type": "zip",
            "url": "https://api.github.com/repos/sebastianbergmann/phpunit/zipball/46023de9a91eec7dfb06cc56cb4e260017298517",
            "reference": "46023de9a91eec7dfb06cc56cb4e260017298517",
            "shasum": ""
        },
        "require": {
            "ext-dom": "*",
            "ext-json": "*",
            "ext-pcre": "*",
            "ext-reflection": "*",
            "ext-spl": "*",
            "php": ">=5.3.3",
            "phpspec/prophecy": "^1.3.1",
            "phpunit/php-code-coverage": "~2.1",
            "phpunit/php-file-iterator": "~1.4",
            "phpunit/php-text-template": "~1.2",
            "phpunit/php-timer": "^1.0.6",
            "phpunit/phpunit-mock-objects": "~2.3",
            "sebastian/comparator": "~1.2.2",
            "sebastian/diff": "~1.2",
            "sebastian/environment": "~1.3",
            "sebastian/exporter": "~1.2",
            "sebastian/global-state": "~1.0",
            "sebastian/version": "~1.0",
            "symfony/yaml": "~2.1|~3.0"
        },
        "suggest": {
            "phpunit/php-invoker": "~1.1"
        },
        "time": "2017-06-21T08:07:12+00:00",
        "bin": [
            "phpunit"
        ],
        "type": "library",
        "extra": {
            "branch-alias": {
                "dev-master": "4.8.x-dev"
            }
        },
        "installation-source": "dist",
        "autoload": {
            "classmap": [
                "src/"
            ]
        },
        "notification-url": "https://packagist.org/downloads/",
        "license": [
            "BSD-3-Clause"
        ],
        "authors": [
            {
                "name": "Sebastian Bergmann",
                "email": "sebastian@phpunit.de",
                "role": "lead"
            }
        ],
        "description": "The PHP Unit Testing framework.",
        "homepage": "https://phpunit.de/",
        "keywords": [
            "phpunit",
            "testing",
            "xunit"
        ]
    },
    {
        "name": "phpunit/phpunit-mock-objects",
        "version": "2.3.8",
        "version_normalized": "2.3.8.0",
        "source": {
            "type": "git",
            "url": "https://github.com/sebastianbergmann/phpunit-mock-objects.git",
            "reference": "ac8e7a3db35738d56ee9a76e78a4e03d97628983"
        },
        "dist": {
            "type": "zip",
            "url": "https://api.github.com/repos/sebastianbergmann/phpunit-mock-objects/zipball/ac8e7a3db35738d56ee9a76e78a4e03d97628983",
            "reference": "ac8e7a3db35738d56ee9a76e78a4e03d97628983",
            "shasum": ""
        },
        "require": {
            "doctrine/instantiator": "^1.0.2",
            "php": ">=5.3.3",
            "phpunit/php-text-template": "~1.2",
            "sebastian/exporter": "~1.2"
        },
        "require-dev": {
            "phpunit/phpunit": "~4.4"
        },
        "suggest": {
            "ext-soap": "*"
        },
        "time": "2015-10-02T06:51:40+00:00",
        "type": "library",
        "extra": {
            "branch-alias": {
                "dev-master": "2.3.x-dev"
            }
        },
        "installation-source": "dist",
        "autoload": {
            "classmap": [
                "src/"
            ]
        },
        "notification-url": "https://packagist.org/downloads/",
        "license": [
            "BSD-3-Clause"
        ],
        "authors": [
            {
                "name": "Sebastian Bergmann",
                "email": "sb@sebastian-bergmann.de",
                "role": "lead"
            }
        ],
        "description": "Mock Object library for PHPUnit",
        "homepage": "https://github.com/sebastianbergmann/phpunit-mock-objects/",
        "keywords": [
            "mock",
            "xunit"
        ]
    },
    {
        "name": "pimple/pimple",
        "version": "v3.2.3",
        "version_normalized": "3.2.3.0",
        "source": {
            "type": "git",
            "url": "https://github.com/silexphp/Pimple.git",
            "reference": "9e403941ef9d65d20cba7d54e29fe906db42cf32"
        },
        "dist": {
            "type": "zip",
            "url": "https://api.github.com/repos/silexphp/Pimple/zipball/9e403941ef9d65d20cba7d54e29fe906db42cf32",
            "reference": "9e403941ef9d65d20cba7d54e29fe906db42cf32",
            "shasum": ""
        },
        "require": {
            "php": ">=5.3.0",
            "psr/container": "^1.0"
        },
        "require-dev": {
            "symfony/phpunit-bridge": "^3.2"
        },
        "time": "2018-01-21T07:42:36+00:00",
        "type": "library",
        "extra": {
            "branch-alias": {
                "dev-master": "3.2.x-dev"
            }
        },
        "installation-source": "dist",
        "autoload": {
            "psr-0": {
                "Pimple": "src/"
            }
        },
        "notification-url": "https://packagist.org/downloads/",
        "license": [
            "MIT"
        ],
        "authors": [
            {
                "name": "Fabien Potencier",
                "email": "fabien@symfony.com"
            }
        ],
        "description": "Pimple, a simple Dependency Injection Container",
        "homepage": "http://pimple.sensiolabs.org",
        "keywords": [
            "container",
            "dependency injection"
        ]
    },
    {
        "name": "psr/container",
        "version": "1.0.0",
        "version_normalized": "1.0.0.0",
        "source": {
            "type": "git",
            "url": "https://github.com/php-fig/container.git",
            "reference": "b7ce3b176482dbbc1245ebf52b181af44c2cf55f"
        },
        "dist": {
            "type": "zip",
            "url": "https://api.github.com/repos/php-fig/container/zipball/b7ce3b176482dbbc1245ebf52b181af44c2cf55f",
            "reference": "b7ce3b176482dbbc1245ebf52b181af44c2cf55f",
            "shasum": ""
        },
        "require": {
            "php": ">=5.3.0"
        },
        "time": "2017-02-14T16:28:37+00:00",
        "type": "library",
        "extra": {
            "branch-alias": {
                "dev-master": "1.0.x-dev"
            }
        },
        "installation-source": "dist",
        "autoload": {
            "psr-4": {
                "Psr\\Container\\": "src/"
            }
        },
        "notification-url": "https://packagist.org/downloads/",
        "license": [
            "MIT"
        ],
        "authors": [
            {
                "name": "PHP-FIG",
                "homepage": "http://www.php-fig.org/"
            }
        ],
        "description": "Common Container Interface (PHP FIG PSR-11)",
        "homepage": "https://github.com/php-fig/container",
        "keywords": [
            "PSR-11",
            "container",
            "container-interface",
            "container-interop",
            "psr"
        ]
    },
    {
        "name": "psr/http-message",
        "version": "1.0.1",
        "version_normalized": "1.0.1.0",
        "source": {
            "type": "git",
            "url": "https://github.com/php-fig/http-message.git",
            "reference": "f6561bf28d520154e4b0ec72be95418abe6d9363"
        },
        "dist": {
            "type": "zip",
            "url": "https://api.github.com/repos/php-fig/http-message/zipball/f6561bf28d520154e4b0ec72be95418abe6d9363",
            "reference": "f6561bf28d520154e4b0ec72be95418abe6d9363",
            "shasum": ""
        },
        "require": {
            "php": ">=5.3.0"
        },
        "time": "2016-08-06T14:39:51+00:00",
        "type": "library",
        "extra": {
            "branch-alias": {
                "dev-master": "1.0.x-dev"
            }
        },
        "installation-source": "dist",
        "autoload": {
            "psr-4": {
                "Psr\\Http\\Message\\": "src/"
            }
        },
        "notification-url": "https://packagist.org/downloads/",
        "license": [
            "MIT"
        ],
        "authors": [
            {
                "name": "PHP-FIG",
                "homepage": "http://www.php-fig.org/"
            }
        ],
        "description": "Common interface for HTTP messages",
        "homepage": "https://github.com/php-fig/http-message",
        "keywords": [
            "http",
            "http-message",
            "psr",
            "psr-7",
            "request",
            "response"
        ]
    },
    {
        "name": "psr/log",
        "version": "1.0.2",
        "version_normalized": "1.0.2.0",
        "source": {
            "type": "git",
            "url": "https://github.com/php-fig/log.git",
            "reference": "4ebe3a8bf773a19edfe0a84b6585ba3d401b724d"
        },
        "dist": {
            "type": "zip",
            "url": "https://api.github.com/repos/php-fig/log/zipball/4ebe3a8bf773a19edfe0a84b6585ba3d401b724d",
            "reference": "4ebe3a8bf773a19edfe0a84b6585ba3d401b724d",
            "shasum": ""
        },
        "require": {
            "php": ">=5.3.0"
        },
        "time": "2016-10-10T12:19:37+00:00",
        "type": "library",
        "extra": {
            "branch-alias": {
                "dev-master": "1.0.x-dev"
            }
        },
        "installation-source": "dist",
        "autoload": {
            "psr-4": {
                "Psr\\Log\\": "Psr/Log/"
            }
        },
        "notification-url": "https://packagist.org/downloads/",
        "license": [
            "MIT"
        ],
        "authors": [
            {
                "name": "PHP-FIG",
                "homepage": "http://www.php-fig.org/"
            }
        ],
        "description": "Common interface for logging libraries",
        "homepage": "https://github.com/php-fig/log",
        "keywords": [
            "log",
            "psr",
            "psr-3"
        ]
    },
    {
        "name": "sebastian/comparator",
        "version": "1.2.4",
        "version_normalized": "1.2.4.0",
        "source": {
            "type": "git",
            "url": "https://github.com/sebastianbergmann/comparator.git",
            "reference": "2b7424b55f5047b47ac6e5ccb20b2aea4011d9be"
        },
        "dist": {
            "type": "zip",
            "url": "https://api.github.com/repos/sebastianbergmann/comparator/zipball/2b7424b55f5047b47ac6e5ccb20b2aea4011d9be",
            "reference": "2b7424b55f5047b47ac6e5ccb20b2aea4011d9be",
            "shasum": ""
        },
        "require": {
            "php": ">=5.3.3",
            "sebastian/diff": "~1.2",
            "sebastian/exporter": "~1.2 || ~2.0"
        },
        "require-dev": {
            "phpunit/phpunit": "~4.4"
        },
        "time": "2017-01-29T09:50:25+00:00",
        "type": "library",
        "extra": {
            "branch-alias": {
                "dev-master": "1.2.x-dev"
            }
        },
        "installation-source": "dist",
        "autoload": {
            "classmap": [
                "src/"
            ]
        },
        "notification-url": "https://packagist.org/downloads/",
        "license": [
            "BSD-3-Clause"
        ],
        "authors": [
            {
                "name": "Jeff Welch",
                "email": "whatthejeff@gmail.com"
            },
            {
                "name": "Volker Dusch",
                "email": "github@wallbash.com"
            },
            {
                "name": "Bernhard Schussek",
                "email": "bschussek@2bepublished.at"
            },
            {
                "name": "Sebastian Bergmann",
                "email": "sebastian@phpunit.de"
            }
        ],
        "description": "Provides the functionality to compare PHP values for equality",
        "homepage": "http://www.github.com/sebastianbergmann/comparator",
        "keywords": [
            "comparator",
            "compare",
            "equality"
        ]
    },
    {
        "name": "sebastian/diff",
        "version": "1.4.3",
        "version_normalized": "1.4.3.0",
        "source": {
            "type": "git",
            "url": "https://github.com/sebastianbergmann/diff.git",
            "reference": "7f066a26a962dbe58ddea9f72a4e82874a3975a4"
        },
        "dist": {
            "type": "zip",
            "url": "https://api.github.com/repos/sebastianbergmann/diff/zipball/7f066a26a962dbe58ddea9f72a4e82874a3975a4",
            "reference": "7f066a26a962dbe58ddea9f72a4e82874a3975a4",
            "shasum": ""
        },
        "require": {
            "php": "^5.3.3 || ^7.0"
        },
        "require-dev": {
            "phpunit/phpunit": "^4.8.35 || ^5.7 || ^6.0"
        },
        "time": "2017-05-22T07:24:03+00:00",
        "type": "library",
        "extra": {
            "branch-alias": {
                "dev-master": "1.4-dev"
            }
        },
        "installation-source": "dist",
        "autoload": {
            "classmap": [
                "src/"
            ]
        },
        "notification-url": "https://packagist.org/downloads/",
        "license": [
            "BSD-3-Clause"
        ],
        "authors": [
            {
                "name": "Kore Nordmann",
                "email": "mail@kore-nordmann.de"
            },
            {
                "name": "Sebastian Bergmann",
                "email": "sebastian@phpunit.de"
            }
        ],
        "description": "Diff implementation",
        "homepage": "https://github.com/sebastianbergmann/diff",
        "keywords": [
            "diff"
        ]
    },
    {
        "name": "sebastian/environment",
        "version": "1.3.8",
        "version_normalized": "1.3.8.0",
        "source": {
            "type": "git",
            "url": "https://github.com/sebastianbergmann/environment.git",
            "reference": "be2c607e43ce4c89ecd60e75c6a85c126e754aea"
        },
        "dist": {
            "type": "zip",
            "url": "https://api.github.com/repos/sebastianbergmann/environment/zipball/be2c607e43ce4c89ecd60e75c6a85c126e754aea",
            "reference": "be2c607e43ce4c89ecd60e75c6a85c126e754aea",
            "shasum": ""
        },
        "require": {
            "php": "^5.3.3 || ^7.0"
        },
        "require-dev": {
            "phpunit/phpunit": "^4.8 || ^5.0"
        },
        "time": "2016-08-18T05:49:44+00:00",
        "type": "library",
        "extra": {
            "branch-alias": {
                "dev-master": "1.3.x-dev"
            }
        },
        "installation-source": "dist",
        "autoload": {
            "classmap": [
                "src/"
            ]
        },
        "notification-url": "https://packagist.org/downloads/",
        "license": [
            "BSD-3-Clause"
        ],
        "authors": [
            {
                "name": "Sebastian Bergmann",
                "email": "sebastian@phpunit.de"
            }
        ],
        "description": "Provides functionality to handle HHVM/PHP environments",
        "homepage": "http://www.github.com/sebastianbergmann/environment",
        "keywords": [
            "Xdebug",
            "environment",
            "hhvm"
        ]
    },
    {
        "name": "sebastian/exporter",
        "version": "1.2.2",
        "version_normalized": "1.2.2.0",
        "source": {
            "type": "git",
            "url": "https://github.com/sebastianbergmann/exporter.git",
            "reference": "42c4c2eec485ee3e159ec9884f95b431287edde4"
        },
        "dist": {
            "type": "zip",
            "url": "https://api.github.com/repos/sebastianbergmann/exporter/zipball/42c4c2eec485ee3e159ec9884f95b431287edde4",
            "reference": "42c4c2eec485ee3e159ec9884f95b431287edde4",
            "shasum": ""
        },
        "require": {
            "php": ">=5.3.3",
            "sebastian/recursion-context": "~1.0"
        },
        "require-dev": {
            "ext-mbstring": "*",
            "phpunit/phpunit": "~4.4"
        },
        "time": "2016-06-17T09:04:28+00:00",
        "type": "library",
        "extra": {
            "branch-alias": {
                "dev-master": "1.3.x-dev"
            }
        },
        "installation-source": "dist",
        "autoload": {
            "classmap": [
                "src/"
            ]
        },
        "notification-url": "https://packagist.org/downloads/",
        "license": [
            "BSD-3-Clause"
        ],
        "authors": [
            {
                "name": "Jeff Welch",
                "email": "whatthejeff@gmail.com"
            },
            {
                "name": "Volker Dusch",
                "email": "github@wallbash.com"
            },
            {
                "name": "Bernhard Schussek",
                "email": "bschussek@2bepublished.at"
            },
            {
                "name": "Sebastian Bergmann",
                "email": "sebastian@phpunit.de"
            },
            {
                "name": "Adam Harvey",
                "email": "aharvey@php.net"
            }
        ],
        "description": "Provides the functionality to export PHP variables for visualization",
        "homepage": "http://www.github.com/sebastianbergmann/exporter",
        "keywords": [
            "export",
            "exporter"
        ]
    },
    {
        "name": "sebastian/global-state",
        "version": "1.1.1",
        "version_normalized": "1.1.1.0",
        "source": {
            "type": "git",
            "url": "https://github.com/sebastianbergmann/global-state.git",
            "reference": "bc37d50fea7d017d3d340f230811c9f1d7280af4"
        },
        "dist": {
            "type": "zip",
            "url": "https://api.github.com/repos/sebastianbergmann/global-state/zipball/bc37d50fea7d017d3d340f230811c9f1d7280af4",
            "reference": "bc37d50fea7d017d3d340f230811c9f1d7280af4",
            "shasum": ""
        },
        "require": {
            "php": ">=5.3.3"
        },
        "require-dev": {
            "phpunit/phpunit": "~4.2"
        },
        "suggest": {
            "ext-uopz": "*"
        },
        "time": "2015-10-12T03:26:01+00:00",
        "type": "library",
        "extra": {
            "branch-alias": {
                "dev-master": "1.0-dev"
            }
        },
        "installation-source": "dist",
        "autoload": {
            "classmap": [
                "src/"
            ]
        },
        "notification-url": "https://packagist.org/downloads/",
        "license": [
            "BSD-3-Clause"
        ],
        "authors": [
            {
                "name": "Sebastian Bergmann",
                "email": "sebastian@phpunit.de"
            }
        ],
        "description": "Snapshotting of global state",
        "homepage": "http://www.github.com/sebastianbergmann/global-state",
        "keywords": [
            "global state"
        ]
    },
    {
        "name": "sebastian/recursion-context",
        "version": "1.0.5",
        "version_normalized": "1.0.5.0",
        "source": {
            "type": "git",
            "url": "https://github.com/sebastianbergmann/recursion-context.git",
            "reference": "b19cc3298482a335a95f3016d2f8a6950f0fbcd7"
        },
        "dist": {
            "type": "zip",
            "url": "https://api.github.com/repos/sebastianbergmann/recursion-context/zipball/b19cc3298482a335a95f3016d2f8a6950f0fbcd7",
            "reference": "b19cc3298482a335a95f3016d2f8a6950f0fbcd7",
            "shasum": ""
        },
        "require": {
            "php": ">=5.3.3"
        },
        "require-dev": {
            "phpunit/phpunit": "~4.4"
        },
        "time": "2016-10-03T07:41:43+00:00",
        "type": "library",
        "extra": {
            "branch-alias": {
                "dev-master": "1.0.x-dev"
            }
        },
        "installation-source": "dist",
        "autoload": {
            "classmap": [
                "src/"
            ]
        },
        "notification-url": "https://packagist.org/downloads/",
        "license": [
            "BSD-3-Clause"
        ],
        "authors": [
            {
                "name": "Jeff Welch",
                "email": "whatthejeff@gmail.com"
            },
            {
                "name": "Sebastian Bergmann",
                "email": "sebastian@phpunit.de"
            },
            {
                "name": "Adam Harvey",
                "email": "aharvey@php.net"
            }
        ],
        "description": "Provides functionality to recursively process PHP variables",
        "homepage": "http://www.github.com/sebastianbergmann/recursion-context"
    },
    {
        "name": "sebastian/version",
        "version": "1.0.6",
        "version_normalized": "1.0.6.0",
        "source": {
            "type": "git",
            "url": "https://github.com/sebastianbergmann/version.git",
            "reference": "58b3a85e7999757d6ad81c787a1fbf5ff6c628c6"
        },
        "dist": {
            "type": "zip",
            "url": "https://api.github.com/repos/sebastianbergmann/version/zipball/58b3a85e7999757d6ad81c787a1fbf5ff6c628c6",
            "reference": "58b3a85e7999757d6ad81c787a1fbf5ff6c628c6",
            "shasum": ""
        },
        "time": "2015-06-21T13:59:46+00:00",
        "type": "library",
        "installation-source": "dist",
        "autoload": {
            "classmap": [
                "src/"
            ]
        },
        "notification-url": "https://packagist.org/downloads/",
        "license": [
            "BSD-3-Clause"
        ],
        "authors": [
            {
                "name": "Sebastian Bergmann",
                "email": "sebastian@phpunit.de",
                "role": "lead"
            }
        ],
        "description": "Library that helps with managing the version number of Git-hosted PHP projects",
        "homepage": "https://github.com/sebastianbergmann/version"
    },
    {
        "name": "slim/php-view",
        "version": "2.2.0",
        "version_normalized": "2.2.0.0",
        "source": {
            "type": "git",
            "url": "https://github.com/slimphp/PHP-View.git",
            "reference": "122ed121a8d9cf91a94020814d2a3ee6c836754f"
        },
        "dist": {
            "type": "zip",
            "url": "https://api.github.com/repos/slimphp/PHP-View/zipball/122ed121a8d9cf91a94020814d2a3ee6c836754f",
            "reference": "122ed121a8d9cf91a94020814d2a3ee6c836754f",
            "shasum": ""
        },
        "require": {
            "psr/http-message": "^1.0"
        },
        "require-dev": {
            "phpunit/phpunit": "^4.8",
            "slim/slim": "^3.0"
        },
        "time": "2016-10-11T07:43:08+00:00",
        "type": "library",
        "installation-source": "dist",
        "autoload": {
            "psr-4": {
                "Slim\\Views\\": "src"
            }
        },
        "notification-url": "https://packagist.org/downloads/",
        "license": [
            "MIT"
        ],
        "authors": [
            {
                "name": "Glenn Eggleton",
                "email": "geggleto@gmail.com"
            }
        ],
        "description": "Render PHP view scripts into a PSR-7 Response object.",
        "keywords": [
            "framework",
            "php",
            "phtml",
            "renderer",
            "slim",
            "template",
            "view"
        ]
    },
    {
        "name": "slim/slim",
        "version": "3.10.0",
        "version_normalized": "3.10.0.0",
        "source": {
            "type": "git",
            "url": "https://github.com/slimphp/Slim.git",
            "reference": "d8aabeacc3688b25e2f2dd2db91df91ec6fdd748"
        },
        "dist": {
            "type": "zip",
            "url": "https://api.github.com/repos/slimphp/Slim/zipball/d8aabeacc3688b25e2f2dd2db91df91ec6fdd748",
            "reference": "d8aabeacc3688b25e2f2dd2db91df91ec6fdd748",
            "shasum": ""
        },
        "require": {
            "container-interop/container-interop": "^1.2",
            "nikic/fast-route": "^1.0",
            "php": ">=5.5.0",
            "pimple/pimple": "^3.0",
            "psr/container": "^1.0",
            "psr/http-message": "^1.0"
        },
        "provide": {
            "psr/http-message-implementation": "1.0"
        },
        "require-dev": {
            "phpunit/phpunit": "^4.0",
            "squizlabs/php_codesniffer": "^2.5"
        },
        "time": "2018-04-19T19:29:08+00:00",
        "type": "library",
        "installation-source": "dist",
        "autoload": {
            "psr-4": {
                "Slim\\": "Slim"
            }
        },
        "notification-url": "https://packagist.org/downloads/",
        "license": [
            "MIT"
        ],
        "authors": [
            {
                "name": "Rob Allen",
                "email": "rob@akrabat.com",
                "homepage": "http://akrabat.com"
            },
            {
                "name": "Josh Lockhart",
                "email": "hello@joshlockhart.com",
                "homepage": "https://joshlockhart.com"
            },
            {
                "name": "Gabriel Manricks",
                "email": "gmanricks@me.com",
                "homepage": "http://gabrielmanricks.com"
            },
            {
                "name": "Andrew Smith",
                "email": "a.smith@silentworks.co.uk",
                "homepage": "http://silentworks.co.uk"
            }
        ],
        "description": "Slim is a PHP micro framework that helps you quickly write simple yet powerful web applications and APIs",
        "homepage": "https://slimframework.com",
        "keywords": [
            "api",
            "framework",
            "micro",
            "router"
        ]
    },
    {
        "name": "symfony/polyfill-ctype",
        "version": "v1.8.0",
        "version_normalized": "1.8.0.0",
        "source": {
            "type": "git",
            "url": "https://github.com/symfony/polyfill-ctype.git",
            "reference": "7cc359f1b7b80fc25ed7796be7d96adc9b354bae"
        },
        "dist": {
            "type": "zip",
            "url": "https://api.github.com/repos/symfony/polyfill-ctype/zipball/7cc359f1b7b80fc25ed7796be7d96adc9b354bae",
            "reference": "7cc359f1b7b80fc25ed7796be7d96adc9b354bae",
            "shasum": ""
        },
        "require": {
            "php": ">=5.3.3"
        },
        "time": "2018-04-30T19:57:29+00:00",
        "type": "library",
        "extra": {
            "branch-alias": {
                "dev-master": "1.8-dev"
            }
        },
        "installation-source": "dist",
        "autoload": {
            "psr-4": {
                "Symfony\\Polyfill\\Ctype\\": ""
            },
            "files": [
                "bootstrap.php"
            ]
        },
        "notification-url": "https://packagist.org/downloads/",
        "license": [
            "MIT"
        ],
        "authors": [
            {
                "name": "Symfony Community",
                "homepage": "https://symfony.com/contributors"
            },
            {
                "name": "Gert de Pagter",
                "email": "BackEndTea@gmail.com"
            }
        ],
        "description": "Symfony polyfill for ctype functions",
        "homepage": "https://symfony.com",
        "keywords": [
            "compatibility",
            "ctype",
            "polyfill",
            "portable"
        ]
    },
    {
        "name": "symfony/yaml",
        "version": "v3.4.12",
        "version_normalized": "3.4.12.0",
        "source": {
            "type": "git",
            "url": "https://github.com/symfony/yaml.git",
            "reference": "c5010cc1692ce1fa328b1fb666961eb3d4a85bb0"
        },
        "dist": {
            "type": "zip",
            "url": "https://api.github.com/repos/symfony/yaml/zipball/c5010cc1692ce1fa328b1fb666961eb3d4a85bb0",
            "reference": "c5010cc1692ce1fa328b1fb666961eb3d4a85bb0",
            "shasum": ""
        },
        "require": {
            "php": "^5.5.9|>=7.0.8",
            "symfony/polyfill-ctype": "~1.8"
        },
        "conflict": {
            "symfony/console": "<3.4"
        },
        "require-dev": {
            "symfony/console": "~3.4|~4.0"
        },
        "suggest": {
            "symfony/console": "For validating YAML files using the lint command"
        },
        "time": "2018-05-03T23:18:14+00:00",
        "type": "library",
        "extra": {
            "branch-alias": {
                "dev-master": "3.4-dev"
            }
        },
        "installation-source": "dist",
        "autoload": {
            "psr-4": {
                "Symfony\\Component\\Yaml\\": ""
            },
            "exclude-from-classmap": [
                "/Tests/"
            ]
        },
        "notification-url": "https://packagist.org/downloads/",
        "license": [
            "MIT"
        ],
        "authors": [
            {
                "name": "Fabien Potencier",
                "email": "fabien@symfony.com"
            },
            {
                "name": "Symfony Community",
                "homepage": "https://symfony.com/contributors"
            }
        ],
        "description": "Symfony Yaml Component",
        "homepage": "https://symfony.com"
    },
    {
        "name": "webmozart/assert",
        "version": "1.3.0",
        "version_normalized": "1.3.0.0",
        "source": {
            "type": "git",
            "url": "https://github.com/webmozart/assert.git",
            "reference": "0df1908962e7a3071564e857d86874dad1ef204a"
        },
        "dist": {
            "type": "zip",
            "url": "https://api.github.com/repos/webmozart/assert/zipball/0df1908962e7a3071564e857d86874dad1ef204a",
            "reference": "0df1908962e7a3071564e857d86874dad1ef204a",
            "shasum": ""
        },
        "require": {
            "php": "^5.3.3 || ^7.0"
        },
        "require-dev": {
            "phpunit/phpunit": "^4.6",
            "sebastian/version": "^1.0.1"
        },
        "time": "2018-01-29T19:49:41+00:00",
        "type": "library",
        "extra": {
            "branch-alias": {
                "dev-master": "1.3-dev"
            }
        },
        "installation-source": "dist",
        "autoload": {
            "psr-4": {
                "Webmozart\\Assert\\": "src/"
            }
        },
        "notification-url": "https://packagist.org/downloads/",
        "license": [
            "MIT"
        ],
        "authors": [
            {
                "name": "Bernhard Schussek",
                "email": "bschussek@gmail.com"
            }
        ],
        "description": "Assertions to validate method input/output with nice error messages.",
        "keywords": [
            "assert",
            "check",
            "validate"
        ]
    }
]
